{
	"info": {
		"_postman_id": "1c8f76ac-8a81-4dc7-a619-1b2ae37d8505",
		"name": "ioasys-backend",
		"schema": "https://schema.getpostman.com/json/collection/v2.1.0/collection.json"
	},
	"item": [
		{
			"name": "ioasys-test",
			"request": {
				"method": "GET",
				"header": [],
				"url": {
					"raw": ""
				}
			},
			"response": []
		},
		{
			"name": "Get App Token",
			"request": {
				"method": "POST",
				"header": [],
				"body": {
					"mode": "urlencoded",
					"urlencoded": [
						{
							"key": "email",
							"value": "admin@test.com",
							"type": "text"
						},
						{
							"key": "password",
							"value": "admin",
							"type": "text"
						}
					]
				},
				"url": {
					"raw": "127.0.0.1:8000/api/auth",
					"host": [
						"127",
						"0",
						"0",
						"1"
					],
					"port": "8000",
					"path": [
						"api",
						"auth"
					]
				},
				"description": "Returns the JWT for authenticating on protected routes. JWT will be used for authenticating the user in some requests."
			},
			"response": []
		},
		{
			"name": "Create User",
			"request": {
				"auth": {
					"type": "bearer",
					"bearer": [
						{
							"key": "token",
							"value": "eyJhbGciOiJIUzI1NiIsInR5cCI6IkpXVCJ9.eyJpZCI6MSwiYWRtaW4iOnRydWUsImlhdCI6MTYxMTI3NTMxOSwiZXhwIjoxNjExMjc3MzE5fQ.VGG7KaY-sbSj3sSNIPkACbulV3bthp_KHS0HFcenCfk",
							"type": "string"
						}
					]
				},
				"method": "POST",
				"header": [
					{
						"key": "Authorization",
						"value": "Bearer eyJhbGciOiJIUzI1NiIsInR5cCI6IkpXVCJ9.eyJpZCI6MiwiaWF0IjoxNjExMjU2Njc5LCJleHAiOjE2MTEyNTg2Nzl9.wIQ60oyShdAp9OPageWcBl4ZJ9If1v0aE1jue35gnAo",
						"type": "text",
						"disabled": true
					}
				],
				"body": {
					"mode": "urlencoded",
					"urlencoded": [
						{
							"key": "name",
							"value": "testUser",
							"type": "text"
						},
						{
							"key": "email",
							"value": "email@tester4.com",
							"type": "text"
						},
						{
							"key": "password",
							"value": "ANewPassword",
							"type": "text"
						},
						{
							"key": "status",
							"value": "active",
							"type": "text"
						},
						{
							"key": "admin",
							"value": "true",
							"type": "text"
						}
					]
				},
				"url": {
					"raw": "127.0.0.1:8000/api/users",
					"host": [
						"127",
						"0",
						"0",
						"1"
					],
					"port": "8000",
					"path": [
						"api",
						"users"
					]
				},
				"description": "Registers a new user. Route is protected through JWT Auth, so you need to provide the JWT from the Get App Token request in the Authorization field."
			},
			"response": []
		},
		{
			"name": "Get Users",
			"request": {
				"method": "GET",
				"header": [],
				"url": {
					"raw": "127.0.0.1:8000/api/users",
					"host": [
						"127",
						"0",
						"0",
						"1"
					],
					"port": "8000",
					"path": [
						"api",
						"users"
					]
				},
				"description": "Lists all Users."
			},
			"response": []
		},
		{
			"name": "Find User",
			"request": {
				"method": "GET",
				"header": [],
				"url": {
					"raw": "127.0.0.1:8000/api/users/{{userId}}",
					"host": [
						"127",
						"0",
						"0",
						"1"
					],
					"port": "8000",
					"path": [
						"api",
						"users",
						"{{userId}}"
					]
				},
				"description": "Finds one User by userId."
			},
			"response": []
		},
		{
			"name": "Update User",
			"request": {
				"auth": {
					"type": "bearer",
					"bearer": [
						{
							"key": "token",
							"value": "eyJhbGciOiJIUzI1NiIsInR5cCI6IkpXVCJ9.eyJpZCI6MSwiYWRtaW4iOnRydWUsImlhdCI6MTYxMTI2NzI0NCwiZXhwIjoxNjExMjY5MjQ0fQ.hnY8tH5FXMh2snXDsdsFRFFF8KlGye2_xj2A76lfnSI",
							"type": "string"
						}
					]
				},
				"method": "PUT",
				"header": [],
				"body": {
					"mode": "urlencoded",
					"urlencoded": [
						{
							"key": "name",
							"value": "newNameForAdmin",
							"type": "text"
						},
						{
							"key": "password",
							"value": "myNewPass",
							"type": "text"
						}
					]
				},
				"url": {
					"raw": "127.0.0.1:8000/api/users/{{userId}}",
					"host": [
						"127",
						"0",
						"0",
						"1"
					],
					"port": "8000",
					"path": [
						"api",
						"users",
						"{{userId}}"
					]
				},
				"description": "Updates User by userId. Requires Admin privileges and JWT Auth."
			},
			"response": []
		},
		{
			"name": "Delete User",
			"request": {
				"auth": {
					"type": "bearer",
					"bearer": [
						{
							"key": "password",
							"value": "{{bearerToken}}",
							"type": "string"
						},
						{
							"key": "token",
							"value": "eyJhbGciOiJIUzI1NiIsInR5cCI6IkpXVCJ9.eyJpZCI6MSwiYWRtaW4iOnRydWUsImlhdCI6MTYxMTI2NzI0NCwiZXhwIjoxNjExMjY5MjQ0fQ.hnY8tH5FXMh2snXDsdsFRFFF8KlGye2_xj2A76lfnSI",
							"type": "string"
						}
					]
				},
				"method": "DELETE",
				"header": [],
				"url": {
					"raw": "127.0.0.1:8000/api/users/2",
					"host": [
						"127",
						"0",
						"0",
						"1"
					],
					"port": "8000",
					"path": [
						"api",
						"users",
						"2"
					]
				},
				"description": "Sets User status to blocked. Requires Admin privileges and JWT Auth."
			},
			"response": []
		},
		{
			"name": "Get Movies",
			"request": {
				"method": "GET",
				"header": [],
				"url": {
					"raw": "127.0.0.1:8000/api/movies",
					"host": [
						"127",
						"0",
						"0",
						"1"
					],
					"port": "8000",
					"path": [
						"api",
						"movies"
					]
				},
				"description": "Lists all movies with their average rankings."
			},
			"response": []
		},
		{
			"name": "Filter Movies",
			"request": {
				"method": "GET",
				"header": [],
				"url": {
					"raw": "127.0.0.1:8000/api/movies/filter/{{filter}}",
					"host": [
						"127",
						"0",
						"0",
						"1"
					],
					"port": "8000",
					"path": [
						"api",
						"movies",
						"filter",
						"{{filter}}"
					]
				},
				"description": "Lists all Movies with their average Ratings. You can add a filter at the end of the URL."
			},
			"response": []
		},
		{
			"name": "Find Movie",
			"request": {
				"method": "GET",
				"header": [],
				"url": {
					"raw": "127.0.0.1:8000/api/movies/1",
					"host": [
						"127",
						"0",
						"0",
						"1"
					],
					"port": "8000",
					"path": [
						"api",
						"movies",
						"1"
					]
				},
				"description": "Returns one Movie by movieId."
			},
			"response": []
		},
		{
			"name": "Create Movie",
			"request": {
				"auth": {
					"type": "bearer",
					"bearer": [
						{
							"key": "token",
							"value": "eyJhbGciOiJIUzI1NiIsInR5cCI6IkpXVCJ9.eyJpZCI6MSwiYWRtaW4iOnRydWUsImlhdCI6MTYxMTI2OTYxMywiZXhwIjoxNjExMjcxNjEzfQ.UOLSA2UWRytNSerOgHL1e517oD8BToViV0U_sckR4Tg",
							"type": "string"
						},
						{
							"key": "password",
							"value": "{{bearerToken}}",
							"type": "string"
						}
					]
				},
				"method": "POST",
				"header": [],
				"body": {
					"mode": "urlencoded",
					"urlencoded": [
						{
							"key": "name",
							"value": "Star Wars Episode IV: A New Hope",
							"type": "text"
						},
						{
							"key": "actors",
							"value": "Harrison Ford, Mark Hamil, James Earl Jones",
							"type": "text"
						},
						{
							"key": "director",
							"value": "George Lucas",
							"type": "text"
						},
						{
							"key": "status",
							"value": "active",
							"type": "text"
						},
						{
							"key": "genre",
							"value": "Science-Fiction",
							"type": "text"
						}
					]
				},
				"url": {
					"raw": "127.0.0.1:8000/api/movies/",
					"host": [
						"127",
						"0",
						"0",
						"1"
					],
					"port": "8000",
					"path": [
						"api",
						"movies",
						""
					]
				},
				"description": "Registers a new Movie. Requires Admin privileges and JWT Auth."
			},
			"response": []
		},
		{
			"name": "Update Movie",
			"request": {
				"auth": {
					"type": "bearer",
					"bearer": [
						{
							"key": "password",
							"value": "{{bearerToken}}",
							"type": "string"
						},
						{
							"key": "token",
							"value": "eyJhbGciOiJIUzI1NiIsInR5cCI6IkpXVCJ9.eyJpZCI6MSwiYWRtaW4iOnRydWUsImlhdCI6MTYxMTI2NzI0NCwiZXhwIjoxNjExMjY5MjQ0fQ.hnY8tH5FXMh2snXDsdsFRFFF8KlGye2_xj2A76lfnSI",
							"type": "string"
						}
					]
				},
				"method": "PUT",
				"header": [],
				"body": {
					"mode": "urlencoded",
					"urlencoded": [
						{
							"key": "name",
							"value": "Justice League",
							"type": "text"
						},
						{
							"key": "actors",
							"value": "Henry Cavil, Ben Affleck, Gal Gadot",
							"type": "text"
						}
					]
				},
				"url": {
					"raw": "127.0.0.1:8000/api/movies/{{movieId}}",
					"host": [
						"127",
						"0",
						"0",
						"1"
					],
					"port": "8000",
					"path": [
						"api",
						"movies",
						"{{movieId}}"
					]
				},
				"description": "Updates a Movie by MovieId. Requires Admin privileges and JWT Auth."
			},
			"response": []
		},
		{
			"name": "Delete Movie",
			"request": {
				"auth": {
					"type": "bearer",
					"bearer": [
						{
							"key": "token",
							"value": "eyJhbGciOiJIUzI1NiIsInR5cCI6IkpXVCJ9.eyJpZCI6MSwiYWRtaW4iOnRydWUsImlhdCI6MTYxMTI2OTYxMywiZXhwIjoxNjExMjcxNjEzfQ.UOLSA2UWRytNSerOgHL1e517oD8BToViV0U_sckR4Tg",
							"type": "string"
						},
						{
							"key": "password",
							"value": "{{bearerToken}}",
							"type": "string"
						}
					]
				},
				"method": "DELETE",
				"header": [],
				"body": {
					"mode": "urlencoded",
					"urlencoded": [
						{
							"key": "name",
							"value": "Star Wars Episode IV: A New Hope",
							"type": "text"
						},
						{
							"key": "actors",
							"value": "Harrison Ford, Mark Hamil, James Earl Jones",
							"type": "text"
						},
						{
							"key": "director",
							"value": "George Lucas",
							"type": "text"
						},
						{
							"key": "status",
							"value": "active",
							"type": "text"
						},
						{
							"key": "genre",
							"value": "Science-Fiction",
							"type": "text"
						}
					]
				},
				"url": {
					"raw": "127.0.0.1:8000/api/movies/{{deleteMovieId}}",
					"host": [
						"127",
						"0",
						"0",
						"1"
					],
					"port": "8000",
					"path": [
						"api",
						"movies",
						"{{deleteMovieId}}"
					]
				},
				"description": "Sets Movie status to blocked. requires Admin privileges and JWT Auth."
			},
			"response": []
		},
		{
			"name": "Rate Movie",
			"request": {
				"auth": {
					"type": "bearer",
					"bearer": [
						{
							"key": "token",
							"value": "eyJhbGciOiJIUzI1NiIsInR5cCI6IkpXVCJ9.eyJpZCI6MSwiYWRtaW4iOnRydWUsImlhdCI6MTYxMTI3NTMxOSwiZXhwIjoxNjExMjc3MzE5fQ.VGG7KaY-sbSj3sSNIPkACbulV3bthp_KHS0HFcenCfk",
							"type": "string"
						},
						{
							"key": "password",
							"value": "{{bearerToken}}",
							"type": "string"
						}
					]
				},
				"method": "PUT",
				"header": [],
				"body": {
					"mode": "urlencoded",
					"urlencoded": [
						{
							"key": "stars",
							"value": "3",
							"type": "text"
						}
					]
				},
				"url": {
					"raw": "127.0.0.1:8000/api/movies/{{movieId}}/rating",
					"host": [
						"127",
						"0",
						"0",
						"1"
					],
					"port": "8000",
					"path": [
						"api",
						"movies",
						"{{movieId}}",
						"rating"
					]
				},
				"description": "Adds rating to Movie. User needs to be authenticated through JWT."
			},
			"response": []
		}
	],
	"variable": [
		{
			"key": "deleteMovieId",
			"value": "2"
		},
		{
			"key": "filter",
			"value": "action"
		}
	]
}